freq,bone_R_mdp,bone_R_wdt,bone_R_FA_rate,bone_R_lapse_rate,bone_L_mdp,bone_L_wdt,bone_L_FA_rate,bone_L_lapse_rate,bone_R_perc50,bone_R_perc2.5,bone_R_perc97.5,bone_L_perc50,bone_L_perc2.5,bone_L_perc97.5,air_R_perc50,air_R_perc2.5,air_R_perc97.5,air_L_perc50,air_L_perc2.5,air_L_perc97.5,gain_R,gain_L,abg_R,abg_L,OE_R_supra,OE_R_circum,OE_R_insert,OE_R_earplug,OE_R_earmold,OE_R_dome_open,OE_R_dome_tulip,OE_R_dome_2_vents,OE_R_dome_1_vent,OE_R_double_dome,OE_L_supra,OE_L_circum,OE_L_insert,OE_L_earplug,OE_L_earmold,OE_L_dome_open,OE_L_dome_tulip,OE_L_dome_2_vents,OE_L_dome_1_vent,OE_L_double_dome,IA_supra,IA_circum,IA_insert,IA_bone,msk_diff,cnt_msk,BCAL,earplug_att,supra_amb_att,circum_amb_att,insert_amb_att,dome_open_att,dome_tulip_att,dome_2_vents_att,dome_1_vent_att,double_dome_att,earmold_att
250,23,5,0.01,0.01,23,5,0.01,0.01,25.0,25.0,30.0,25.0,25.0,30.0,30.0,25.0,30.0,40.0,40.0,40.0,0,15,4,15,20.099978353933484,15.636951220672998,5.576366237143393,7.5836834373920015,13.00046401414681,0.0,0.009807546828112735,9.929516812723614,8.170024191842737,5.049848319298569,6.281243235604215,4.886547256460311,1.7426144491073101,7.5836834373920015,13.00046401414681,0.0,0.009807546828112735,9.929516812723614,8.170024191842737,5.049848319298569,66.89669794996507,59.34632614176088,72.19154255408115,0.0,5.252398590963953,2.087714222617071,53.216748371986846,39.83479740292557,9.485296037185027,30.244654565764336,35.58484496928691,-0.1064223762199592,0.516370572577495,0.29388013783638856,-0.1066759857398053,1.1503695108505052,35.59150348536801
500,24,5,0.01,0.01,23,5,0.01,0.01,25.0,25.0,30.0,25.0,25.0,30.0,30.0,30.0,35.0,45.0,45.0,50.0,0,20,4,20,15.334939310259818,8.440011071733046,3.8726543275150127,4.286238236499274,8.758567441909067,0.0,3.4022636547130505,8.357893844812015,4.959017310306771,6.390004143103122,0.0,0.0,0.0,0.0,0.0,0.0,0.0,0.0,0.0,0.0,58.813540973374245,72.92404767077187,85.94863675450853,1.513354869024467,2.419633186169946,1.3628219720830614,57.742269598369425,49.789406963516576,9.726828289030315,37.18369291036558,44.49514722663246,-0.060651322459232104,0.004947254639283083,1.0350419940382394,-0.07692363649971568,-0.3640897389823126,48.536936370387664
1000,24,5,0.01,0.01,23,5,0.01,0.01,25.0,25.0,30.0,25.0,25.0,30.0,35.0,35.0,35.0,45.0,45.0,50.0,0,20,9,20,4.417251477715106,1.5785867452603208,0.0,0.0,3.181620277511039,0.0,0.05864755831168093,0.33429168943658955,1.2803990278873383,0.02629209710747668,0.0,0.0,0.0,0.0,0.0,0.0,0.0,0.0,0.0,0.0,70.38859017196184,66.94678267330985,79.18367116550729,0.5187908769954293,-3.3385479085437195,0.528367128933988,38.12625293937449,48.50477455882489,11.81132349000872,39.80951898033804,36.6096546481275,-1.45215260992312,-0.44344514156159043,3.353806501901945,1.9105991965200535,-4.316305643273386,47.87636909224975
2000,28,5,0.01,0.01,28,5,0.01,0.01,30.0,30.0,35.0,30.0,30.0,35.0,35.0,35.0,35.0,40.0,40.0,40.0,0,20,5,10,0.0,0.0,0.0,0.0,0.0,0.0,0.0,0.0,0.0,0.0,0.0,0.0,0.0,0.0,0.0,0.0,0.0,0.0,0.0,0.0,72.0352991222737,58.16169342024377,64.86302735724684,4.744909248437529,0.9773203986526235,1.0061428830270103,37.022422421102775,39.53012645684765,17.13033609469183,33.32194724175446,34.386903612201046,0.48087041652934687,2.7306291547390344,-7.908361816597166,-8.885993085917274,-19.56987200820428,38.3496512266219
4000,29,5,0.01,0.01,28,5,0.01,0.01,30.0,30.0,35.0,30.0,30.0,35.0,35.0,35.0,40.0,45.0,45.0,50.0,0,15,5,15,0.0,0.0,0.0,0.0,0.0,0.0,0.0,0.0,0.0,0.0,0.0,0.0,0.0,0.0,0.0,0.0,0.0,0.0,0.0,0.0,57.97751820467899,80.31596724261146,75.63813994408387,10.629588499252174,0.06218272316300119,2.2121863545022444,46.72570163444407,52.32836912241153,22.386682454429526,41.52615928182536,38.114737313575986,-0.17984746344493185,-11.74618100317753,-3.827739063173108,-11.767644671287762,-9.129027780588432,48.5094168811598
8000,29,5,0.01,0.01,29,5,0.01,0.01,30.0,30.0,35.0,30.0,30.0,35.0,40.0,40.0,40.0,50.0,50.0,50.0,0,20,9,19,0.0,0.0,0.0,0.0,0.0,0.0,0.0,0.0,0.0,0.0,0.0,0.0,0.0,0.0,0.0,0.0,0.0,0.0,0.0,0.0,42.87850990066864,67.00232418787364,72.01941262052591,9.705591219032046,-0.8720964997816224,4.0791100108461436,50.91788929818036,49.1219253454657,20.18258966095997,34.595675779556956,37.18192065716223,-4.083979693570324,6.182303813026208,-11.421945208471417,-10.703704124948025,-9.362246302310371,53.43284307655196
